VPN Account:

5. tha.long@kqube.com
user name: long
3oZW@q5N6La4Ddra


Please put System Form(Homework, Timetable, School Plan, Study Result)

*****School Management System for IEL*********************
1. Website: http://10.11.100.41 (or iel-sms.kqube.cloud) ->server testing
http://10.11.100.41/apiv1/general.php
iel-sms.kqube.cloud
https://10.11.100.41:12321/filemin/index.cgi?path=%2Fvar%2Fwww%2Fcodeigniter%2Fapiv1

put asset: / var / www / codeigniter / assets /

server test: / var / local / codeigniter / application /


============================================================================================================================================


2. Server: https://10.11.100.40:12321 ->server live

server live pass: Tinh_Trei_123kg

/ var / www / sms.iel.edu.kh / app 

3. MySQL : https://10.11.100.41:12322 
4. SSH/FTPS : IP: 10.11.100.41, user: root, port 22
5. User: root
   pass:TinhTrei123kg
*********************************************************
Connect DB server:
hostname: localhost
user    : root
pass    : TinhTrei123kg
DB_Name : codeigniter
*********************************************************
